parte_operativa/testbench/PC/pc_waveform.vcd
$date
     Apr 27, 2024       09:24:49
$end

$version
 SystemC 2.3.3-Accellera --- Apr 15 2024 10:27:28
$end

$timescale
     1 ps
$end

$scope module SystemC $end
$var wire    1  aaaaa  clock       $end
$var wire    1  aaaab  reset       $end
$var wire    1  aaaac  enable       $end
$var wire   32  aaaad  jump_address [31:0]  $end
$var wire    1  aaaae  jump       $end
$var wire   32  aaaaf  pc_out [31:0]  $end
$upscope $end
$enddefinitions  $end

$comment
All initial values are dumped below at time 0 sec = 0 timescale units.
$end

$dumpvars
1aaaaa
0aaaab
0aaaac
b0 aaaad
0aaaae
b0 aaaaf
$end

#1000
0aaaaa

#2000
1aaaaa

#3000
0aaaaa

#4000
1aaaaa

#5000
0aaaaa
1aaaab

#6000
1aaaaa

#7000
0aaaaa
0aaaab
1aaaac

#8000
1aaaaa
b1 aaaaf

#9000
0aaaaa

#10000
1aaaaa
b10 aaaaf

#11000
0aaaaa
b1111011 aaaad
1aaaae

#12000
1aaaaa
b1111011 aaaaf

#13000
0aaaaa
0aaaae

#14000
1aaaaa
b1111100 aaaaf

#15000
0aaaaa

#16000
1aaaaa
b1111101 aaaaf

#17000
0aaaaa

#18000
1aaaaa
b1111110 aaaaf

